mass_A
t	x	y
0.0	-3.8686021686829E-5	0.30636821747616294
0.03332222222222231	3.960326639879108E-5	0.30629072708901733
0.06665555555555579	1.0959692610995608E-4	0.30677487773463535
0.0999777777777781	3.946213573008395E-5	0.3070334616663456
0.13331111111111113	0.0029190301576932642	0.3020815882974622
0.16664444444444462	0.010665316516215967	0.30031844950022957
0.19996666666666693	0.023742568939491865	0.2968426999894136
0.23330000000000017	0.034889051310367625	0.29323911327240765
0.26662222222222226	0.04861125127018065	0.2884125287143414
0.29995555555555575	0.06462869745364994	0.2823519965118605
0.33327777777777784	0.08327063620773059	0.27674352053904294
0.36661111111111133	0.1055332495615563	0.26993318420091494
0.39993333333333364	0.1322381120269167	0.2649870475128523
0.43326666666666663	0.15580906225189	0.2568907774449663
0.4666000000000001	0.1810054151714502	0.25300122119712765
0.49992222222222243	0.21277350580941967	0.24314727999630642
0.5332555555555557	0.24283140175474593	0.23861027351824954
0.566577777777778	0.274890391770965	0.2332651567768409
0.5999111111111113	0.3086931289086262	0.22742502254194252
0.6332333333333335	0.34417787531119876	0.21981513036302186
0.6665666666666669	0.38033789246735206	0.2101742404486881
0.6998888888888891	0.41789761285353655	0.19652295552605414
0.7332222222222224	0.4568487624190387	0.1782017179516664
0.7665444444444445	0.4982678907574466	0.15779923636729964
0.7998777777777779	0.5439358984074866	0.1401925823392362
0.8332111111111112	0.5940493354199444	0.13566489658940084
0.8665333333333335	0.6448228626818324	0.1374210008791188
0.8998666666666668	0.6913425457031135	0.15175119539958482
0.9331888888888891	0.7329451426601556	0.1684880763315948
0.9665222222222224	0.7731554243378715	0.18406583262697634
0.9998555555555556	0.8113696362136738	0.19493156955300633
1.033177777777778	0.8483411507236845	0.2009359656934122
1.0665111111111114	0.8864980655656547	0.20233828677253135
1.0998333333333339	0.9228534242333737	0.1982768619528924
1.1331666666666669	0.9623407841376344	0.18844746306898708
1.1664888888888891	1.0007484550356764	0.1732475463906447
1.1998222222222226	1.0427993089428256	0.15211084732068003
1.233155555555556	1.087368559171698	0.12882292565550146
1.2664777777777776	1.137466749550156	0.10969806562655054
1.2998000000000003	1.1927546589492886	0.10322429437029385
1.3331333333333337	1.2476894384325823	0.10937753480106249
1.3664666666666667	1.2972060367827596	0.12655552396499298
1.3997888888888892	1.3426055588591346	0.14684376756526785
1.4331222222222222	1.3847019372487377	0.16612406831834875
