mass_A
t	x	y
0.0	-0.0019087617505804955	0.3074295108355619
0.03332222222222208	-0.0016831693975744022	0.3073871838266988
0.06665555555555545	0.00817436796348528	0.3043614727699926
0.09997777777777776	0.013209667647141432	0.3008943457781424
0.13331111111111102	0.023659884569439738	0.2976486190134109
0.16663333333333333	0.03742588603243446	0.29185060389609885
0.19996666666666657	0.05155098176599085	0.28736366088401
0.23329999999999995	0.0683609815583521	0.2828035368049451
0.26662222222222215	0.08778035520185395	0.2760019174416868
0.29995555555555553	0.10916757934325338	0.26975827062799224
0.33327777777777773	0.13316190859191318	0.2637047301590962
0.3666111111111111	0.15874670304190697	0.25921670264479596
0.3999333333333333	0.18883491514777312	0.2560011495000656
0.43326666666666663	0.2189122803889612	0.24432637613651575
0.4665999999999998	0.24808683234730955	0.23916167843610547
0.4999222222222221	0.2813768289828142	0.23395906213807205
0.5332555555555556	0.3182992029060145	0.2264654015594687
0.5665777777777778	0.35319169342961704	0.2185025457452724
0.5999111111111112	0.3900802817569964	0.2085535914564327
0.6332444444444444	0.42667368737400546	0.19308262073783078
0.6665666666666668	0.46584018217950585	0.17573220486092073
0.6999	0.5085933970498548	0.1550711904200418
0.7332333333333335	0.5555475719344762	0.13904421985577614
0.7665555555555553	0.6058374840776642	0.1361400087813599
0.7998777777777776	0.6552059829546579	0.14419949199920673
0.8332111111111111	0.6994790540093396	0.15990632628833135
0.8665333333333334	0.7402033892609086	0.17547962251822896
0.8998777777777779	0.7791239680298613	0.19006222767693182
0.9331999999999999	0.8160207359783264	0.19773760799016205
0.9665222222222223	0.8521441415779343	0.2033336896673285
0.9998555555555555	0.8889154633024372	0.20409576174513588
1.033177777777778	0.9259747426310339	0.19942093172437442
1.066511111111111	0.9646885170009805	0.1887418001450784
1.0998333333333334	1.0057522979567097	0.17723665172204345
1.1331666666666664	1.0458819712830176	0.15134442554764205
1.1665	1.0899831047249293	0.12815747204270111
1.1998222222222221	1.1402037188373826	0.11026365774123592
1.2331555555555556	1.194759040520523	0.10698402594821443
1.2664777777777776	1.2482062201291744	0.11465777523450954
1.299811111111111	1.2963305960737586	0.1307711417323324
1.3331333333333333	1.3381143616286546	0.15212628948439888
1.3664666666666667	1.3801013297436073	0.16968636187351166
