Ring
t	x	y
0.0	2.3680530861883153E-4	0.3195695980632377
0.03332222222222231	0.0013236141748012575	0.31943861190955924
0.06665555555555557	0.0035747564923523656	0.31884699234183045
0.09998888888888893	0.007447598789033283	0.31788300104398304
0.13331111111111124	0.012487762448635309	0.3167024411116676
0.1666444444444445	0.01926266630104495	0.314728494964701
0.19996666666666682	0.027893091346705978	0.31250601405238543
0.23330000000000006	0.03830046252451677	0.30898319671168495
0.26662222222222237	0.05045678060882253	0.305237338666314
0.29995555555555564	0.06434491107289433	0.3015189085035018
0.33327777777777784	0.08007524682932107	0.2965467312242353
0.3666111111111112	0.09676585867179374	0.29039250335196787
0.39994444444444455	0.11507212530727104	0.28491723828309334
0.43326666666666686	0.13498386097711787	0.27861633722170076
0.4666000000000001	0.15634935165139	0.27328135981041657
0.4999222222222222	0.1795292154714048	0.2684205753926805
0.5332555555555557	0.205269666385166	0.2628364483417017
0.5665888888888889	0.2328997724004566	0.25753047725914413
0.5999111111111113	0.26047454848680895	0.25186457993408096
0.6332444444444447	0.2885395215270844	0.2467047353997444
0.6665666666666666	0.3169197604367885	0.24186180282946762
0.6999000000000001	0.3464173373574524	0.23636276681642354
0.7332222222222224	0.37746529771556736	0.22911492266186195
0.7665555555555557	0.40953509073402083	0.21803695710001042
0.7998777777777777	0.441422247781349	0.20284217660008458
0.8332111111111112	0.4750263229613765	0.18612966987221863
0.8665333333333335	0.5115978210654308	0.16899189851598462
0.8998666666666668	0.5528311970737494	0.15437611914249733
0.9332000000000003	0.5936772068081106	0.14840932195418388
0.9665333333333334	0.6329765297234026	0.15364387143705605
0.9998555555555556	0.6703046651938747	0.16534363080367498
1.0331888888888892	0.7059510049755381	0.17716243048928948
1.0665111111111114	0.7356914294536386	0.18884352372133772
1.0998333333333332	0.7637462375627841	0.20013147092732647
1.1331666666666667	0.7912053702288525	0.21060124491989674
1.1665000000000003	0.8193824934689917	0.2179685725690289
1.1998222222222223	0.8474084520818428	0.22109079535568038
1.2331555555555558	0.8741186201307725	0.22115660123064673
1.2664777777777778	0.9004910782250619	0.22049958367463357
1.299811111111111	0.9273208710284642	0.21749798540363757
1.3331444444444447	0.955611087590041	0.21142635445868746
1.366477777777778	0.9857316944094909	0.20150762970993824
1.3998000000000004	1.0174574418205846	0.1859534610299044
1.4331222222222224	1.0501124822958192	0.16784914786389615
1.4664555555555556	1.0856049106799708	0.15034416113231602
1.499777777777778	1.1251967776339993	0.13394850205149877
1.533111111111111	1.1688427795397798	0.12290089636641632
1.5664444444444445	1.2113413537024724	0.1202895946095004
1.599766666666667	1.2523314578524052	0.12794496165896535
1.6331000000000002	1.292062011728755	0.14161898941926804
1.6664222222222222	1.3295942578631663	0.1548904812994476
1.6997555555555557	1.3614800582699702	0.17012341138140613
1.7330777777777777	1.3894189750770665	0.18381433388957197
