Ring
t	x	y
0.0	0.005889106574692021	0.31870682902204905
0.033333333333333486	0.007539679797348292	0.3183437767032421
0.06665555555555579	0.010205752899984988	0.3175782119456695
0.09998888888888904	0.014581458216137128	0.3165060304614631
0.13331111111111113	0.019795194909027758	0.3151537899937386
0.16664444444444462	0.02694212207813898	0.3133696794298765
0.1999666666666667	0.03542987755427676	0.31083742990523044
0.23330000000000017	0.045897448360538134	0.30836647026542985
0.26663333333333367	0.05756922287307617	0.3048571112807948
0.29995555555555553	0.07088394904356979	0.30060503078980605
0.333288888888889	0.08523950862371679	0.29552713498693806
0.36662222222222224	0.10127783025885231	0.2903416753855691
0.39994444444444455	0.1190123260657521	0.2847186222067897
0.43326666666666686	0.13851433995431103	0.27901603758953414
0.4666000000000001	0.15957010232785354	0.27390843808577175
0.49992222222222243	0.18299770707250604	0.2689561401788805
0.5332555555555557	0.20814179619556902	0.26367711577104175
0.5665888888888891	0.23468825853106487	0.25798729968195866
0.5999111111111111	0.26149213634909996	0.25247316511057916
0.6332444444444447	0.28847750071965383	0.247387641157727
0.6665666666666666	0.31658511823999924	0.24315991440834733
0.6999000000000001	0.34604625913822606	0.2380861082758824
0.7332333333333336	0.3768182466059401	0.23045972864160147
0.7665555555555557	0.4075910299910237	0.2195651835292025
0.7998777777777777	0.43899531256978597	0.2057124709922417
0.8332111111111112	0.4717354681631264	0.18908272869602682
0.8665333333333333	0.5079524479280141	0.17236621173081856
0.8998666666666668	0.5481066357335296	0.15697485577901388
0.9332000000000003	0.5876398624478614	0.14912568790193842
0.9665222222222224	0.6259005671947689	0.1534305687935481
0.9998555555555554	0.6624381258338531	0.1634510093316392
1.0331888888888894	0.6954276527711757	0.17472613108667295
1.0665111111111114	0.7234224667644177	0.1852176052375621
1.0998444444444444	0.7481296902167913	0.1955409397703271
1.1331666666666669	0.7716873845420545	0.2057023513305481
1.1665	0.7950994644361069	0.2129011628575011
1.1998222222222221	0.8167724991332834	0.2172871403726216
1.233155555555556	0.8381999233314219	0.22021593400377704
1.266477777777778	0.8600262993012917	0.2224043258762914
1.299811111111111	0.882007673718082	0.22365684765214106
1.3331444444444447	0.9043736030982157	0.2233483335189091
1.3664666666666667	0.9283973097180152	0.22102357991775684
1.3998000000000002	0.9527589525950932	0.215330879809272
1.4331222222222222	0.9775393825976912	0.20667152131352184
1.4664555555555558	1.0027716603473273	0.19468043515244293
1.4997777777777783	1.0300563091378476	0.18113288885441758
1.5331111111111113	1.0600194467194564	0.16559044005202517
1.5664333333333333	1.093752209437705	0.1493563885554714
1.5997666666666668	1.1321640871379184	0.1335673855111013
1.633088888888889	1.1711504430400705	0.12287489749996394
1.6664222222222225	1.2095605591688505	0.12180386063607218
1.699755555555556	1.248342262949353	0.1293159267783694
1.733077777777778	1.283875186429363	0.13891690099792475
1.766411111111111	1.3135120340052568	0.14987161919574388
1.7997333333333336	1.339781820345174	0.16198465423019454
1.833066666666667	1.3628655360051751	0.1751952432076061
1.8664	1.3842752082977567	0.18702843187327728
1.8997222222222225	1.3998894180899522	0.19441839764053193
