Ring
t	x	y
0.0	0.001469659533143708	0.3200919655602382
0.03332222222222231	0.001964331480087095	0.319974325724142
0.06665555555555557	0.002901751073565273	0.31987960539824023
0.09998888888888882	0.0036631040085401134	0.3196859532107868
0.13331111111111113	0.005136191342680868	0.31933512851274704
0.16663333333333322	0.008720017465890906	0.3182901544784284
0.1999666666666667	0.013729612658887724	0.3167512444570285
0.23330000000000017	0.020052723282326657	0.31518413158512104
0.26662222222222204	0.028490035795264185	0.31319136175383244
0.29995555555555553	0.03811385525956601	0.3099400805094492
0.33329999999999993	0.04961919447493332	0.3067618422941947
0.3666111111111111	0.06229706534483112	0.3024522522933175
0.3999444444444443	0.07729035670145087	0.2975832393132841
0.43326666666666663	0.0940836382640792	0.2919506353354101
0.4665999999999999	0.11196930457118401	0.28650010180793095
0.4999222222222222	0.13077827402044837	0.2803453160455657
0.5332444444444445	0.15127022260289688	0.27481369222751184
0.5665777777777777	0.1741087130718911	0.26967360915966976
0.5999111111111111	0.1991364639443535	0.2648044676005133
0.6332333333333333	0.2260105488569187	0.25968225176454485
0.6665666666666669	0.2527556826893331	0.2538135996690942
0.6998999999999999	0.28017546970927487	0.24876609085535178
0.7332222222222222	0.307895183628913	0.24400533349119563
0.7665555555555554	0.3370320451944443	0.23898379112676238
0.7998888888888889	0.36811216661355883	0.2324214739704057
0.8332111111111112	0.39962823183787965	0.22200898784922868
0.8665444444444442	0.4313297295571201	0.20858185633096304
0.8998666666666666	0.4641571229302208	0.19212744875678628
0.9331888888888888	0.5003506375730337	0.17513519974067082
0.9665222222222224	0.5408847811671228	0.15896959922293064
0.9998555555555556	0.5818243467904858	0.14896394043302502
1.0331777777777782	0.6231487688948041	0.1522202786875927
1.0665111111111112	0.6630798533877059	0.1635416621893757
1.0998333333333332	0.7015809373785193	0.17570930638644805
1.1331666666666667	0.7348628784333846	0.18842957935203491
1.166488888888889	0.7661794805828454	0.20135009710617036
1.1998222222222223	0.796869306395878	0.21170394909607865
1.2331444444444444	0.8283699047210817	0.21856533698190633
1.2664777777777778	0.8584153761487701	0.22036087690405315
1.2998111111111108	0.8870537966566974	0.22089488598628249
1.3331333333333335	0.9162324796125307	0.21893856568319847
1.366466666666667	0.9471737561103397	0.21355445296921083
1.3997888888888885	0.9802481267541294	0.20375591130408405
1.4331222222222224	1.0141654515405494	0.18844885840496695
1.4664444444444447	1.0485598971551757	0.16973466619881955
1.4997777777777777	1.0858603892982033	0.15132533343909343
1.5331000000000001	1.127823957098398	0.1345582246355274
1.5664333333333331	1.1732261429550197	0.12269205493599383
1.5997666666666666	1.2181003301554916	0.12205906562679569
1.6330888888888893	1.2608686686439436	0.13079297167933546
1.6664222222222222	1.2990985245623612	0.14527376081450843
1.6997555555555557	1.333676388306106	0.15750290638063325
1.7330777777777777	1.3625259837210972	0.17275719792644478
1.7664111111111114	1.3879600561074827	0.18567770906612657
